<svg width="51" height="51" viewBox="0 0 51 51" fill="none" xmlns="http://www.w3.org/2000/svg">
<circle cx="25.5" cy="25.5" r="23.375" stroke="#FFDC83" stroke-width="4.25"/>
<path d="M35.9577 30.7225V33.8839C35.9589 34.1774 35.8988 34.4679 35.7812 34.7368C35.6637 35.0057 35.4912 35.247 35.275 35.4454C35.0587 35.6438 34.8034 35.7949 34.5254 35.8889C34.2474 35.9829 33.9528 36.0179 33.6605 35.9914C30.4178 35.6391 27.303 34.5311 24.5664 32.7563C22.0202 31.1384 19.8616 28.9798 18.2437 26.4336C16.4627 23.6845 15.3544 20.5546 15.0086 17.2973C14.9822 17.0059 15.0169 16.7122 15.1102 16.435C15.2036 16.1577 15.3537 15.9029 15.551 15.6868C15.7483 15.4707 15.9884 15.298 16.256 15.1798C16.5237 15.0616 16.813 15.0004 17.1056 15.0001H20.2669C20.7783 14.9951 21.2741 15.1762 21.6619 15.5096C22.0496 15.8431 22.3029 16.3062 22.3745 16.8126C22.5079 17.8243 22.7554 18.8177 23.1121 19.7737C23.2539 20.1509 23.2846 20.5608 23.2006 20.9549C23.1165 21.349 22.9213 21.7107 22.6379 21.9972L21.2996 23.3355C22.7998 25.9737 24.9841 28.1581 27.6223 29.6582L28.9606 28.3199C29.2471 28.0366 29.6089 27.8413 30.0029 27.7573C30.397 27.6732 30.8069 27.7039 31.1841 27.8457C32.1402 28.2025 33.1335 28.4499 34.1452 28.5834C34.6571 28.6556 35.1246 28.9134 35.4588 29.3078C35.793 29.7022 35.9706 30.2057 35.9577 30.7225Z" fill="#FFDC83"/>
</svg>
