<svg width="8" height="15" viewBox="0 0 8 15" fill="none" xmlns="http://www.w3.org/2000/svg">
<path d="M7.75822 5.4546H5.07397V3.66021C5.07397 3.16491 5.47474 2.76297 5.96881 2.76297H6.86353V0.52002H5.07397C3.59137 0.52002 2.38972 1.72488 2.38972 3.21156V5.4546H0.600098V7.69752H2.38972V14.875H5.07397V7.69752H6.86353L7.75822 5.4546Z" fill="white"/>
</svg>
