<svg width="42" height="42" viewBox="0 0 42 42" fill="none" xmlns="http://www.w3.org/2000/svg">
<circle cx="21" cy="21" r="21" fill="#FFDC83"/>
<path d="M9.79212 14C10.6124 14 11.8624 14 12.5656 14C12.9171 14 13.1906 14.2344 13.3077 14.5469C13.6593 15.5625 14.4406 17.7891 15.339 19.3125C16.5499 21.3047 17.3312 22.0469 17.839 21.9688C18.3468 21.8516 18.1906 20.5234 18.1906 19.4688C18.1906 18.4141 18.3077 16.6172 17.7999 15.7969L17.0187 14.6641C16.8234 14.3906 17.0187 14.0391 17.3312 14.0391H21.7843C22.214 14.0391 22.5656 14.3906 22.5656 14.8203V20.4844C22.5656 20.4844 22.7609 21.5 23.8546 20.4453C24.9484 19.3906 26.1202 17.4375 27.0968 15.4453L27.4874 14.5078C27.6046 14.2344 27.8781 14.0391 28.1906 14.0391H31.0812C31.6281 14.0391 32.0187 14.5859 31.8234 15.0938L31.5109 15.9141C31.5109 15.9141 30.4562 18.0234 29.3624 19.5078C28.2687 21.0312 28.0343 21.3828 28.1906 21.7734C28.3468 22.1641 31.1593 24.7812 31.8624 26.0312C32.0577 26.3828 32.214 26.6953 32.3702 26.9687C32.6437 27.4766 32.2531 28.1406 31.6671 28.1406H28.3859C28.1124 28.1406 27.839 27.9844 27.7218 27.75L27.4093 27.2422C27.4093 27.2422 25.4171 24.8984 24.2062 24.1563C22.9562 23.4531 22.9952 24.4688 22.9952 24.4688V26.5391C22.9952 27.3984 22.2921 28.1016 21.4327 28.1016H20.6515C20.6515 28.1016 16.3546 28.1016 12.9171 22.9844C10.2218 19 9.32337 16.4219 9.01087 14.9375C8.93274 14.4687 9.28431 14 9.79212 14Z" fill="#262626"/>
</svg>
